,Document_No,Dominant_Topic,Topic_Perc_Contrib,Topic Keywords,Text
0,0,2,0.9531,"pantai, kotor, parkir, air, sampah","['temu', 'pantai', 'jalan', 'daerah', 'kumuh', 'butuh', 'baik', 'upgrade', 'maaf', 'buru', 'buru', 'coba', 'minyak', 'nusa']"
1,1,2,0.9863,"pantai, kotor, parkir, air, sampah","['area', 'pantai', 'pribadi', 'hotel', 'bersih', 'bagus', 'kotor', 'ramai', 'sewa', 'kursi', 'tua', 'kotor', 'stabil', 'detik', 'dekat', 'ritel', 'jual', 'suvenir', 'murah', 'pijat', 'area', 'pantai', 'pribadi', 'hotel', 'bersih', 'bagus', 'kotor', 'ramai', 'sewa', 'kursi', 'tua', 'kotor', 'stabil', 'detik', 'dekat', 'ritel', 'jual', 'suvenir', 'murah', 'pijat', 'area', 'pantai', 'pribadi', 'hotel', 'bersih', 'bagus', 'kotor', 'ramai', 'sewa', 'kursi', 'tua', 'kotor', 'stabil']"
2,2,1,0.9846,"parkir, bersih, air, makan, hotel","['olahraga', 'air', 'genggam', 'coba', 'tarif', 'murah', 'tarik', 'pasang', 'muslim', 'sulit', 'temu', 'makan', 'halal', 'restoran', 'dekat', 'cafe', 'milik', 'alkohol', 'layan', 'ebagai', 'pasang', 'muslim', 'sulit', 'temu', 'makan', 'halal', 'restoran', 'dekat', 'cafe', 'milik', 'alkohol', 'layan', 'pasang', 'muslim', 'sulit', 'temu', 'makan', 'halal', 'restoran', 'dekat', 'cafe', 'milik', 'alkohol', 'layan']"
3,3,1,0.9861,"parkir, bersih, air, makan, hotel","['pikir', 'hotel', 'bagus', 'bersih', 'gazeebos', 'pantai', 'santa', 'sopir', 'spa', 'wanita', 'ganggu', 'tawar', 'kali', 'sudut', 'pantai', 'pikir', 'hotel', 'bagus', 'bersih', 'gazeebos', 'pantai', 'santa', 'sopir', 'spa', 'wanita', 'ganggu', 'tawar', 'kali', 'sudut', 'pantai', 'inap', 'respati', 'sanur', 'beach', 'hotel', 'pikir', 'hotel', 'bagus', 'bersih', 'gazeebos', 'pantai', 'santa', 'sopir', 'spa', 'wanita', 'ganggu', 'tawar', 'kali', 'sudut', 'pantai']"
4,4,0,0.9672,"cafe, toilet, anak, yg, mandi","['milik', 'kebab', 'salmon', 'muntah', 'kebab', 'perut', 'ikan', 'pergi', 'bagus', 'ikan', 'milik', 'kebab', 'salmon', 'muntah', 'kebab', 'perut', 'ikan', 'pergi', 'bagus', 'ikan']"
5,5,0,0.7772,"cafe, toilet, anak, yg, mandi","['sunbeds', 'sunbeds']"
6,6,0,0.9637,"cafe, toilet, anak, yg, mandi","['kesana', 'anak', 'main', 'pantai', 'nyaman', 'karna', 'speedboat', 'labuh', 'enak', 'nusa', 'kuta', 'kesana', 'anak', 'main', 'pantai', 'nyaman', 'karna', 'speedboat', 'labuh']"
7,7,1,0.9475,"parkir, bersih, air, makan, hotel","['makan', 'main', 'air', 'bersih', 'makan', 'main', 'air', 'bersih', 'makan', 'main', 'air', 'bersih']"
8,8,1,0.9842,"parkir, bersih, air, makan, hotel","['sisi', 'air', 'jalan', 'jual', 'makan', 'lokal', 'aktivitas', 'air', 'buruk', 'seberang', 'jalan', 'hotel', 'spa', 'restoran', 'sisi', 'air', 'jalan', 'jual', 'makan', 'lokal', 'aktivitas', 'air', 'buruk', 'seberang', 'jalan', 'hotel', 'spa', 'restoran', 'sisi', 'air', 'jalan', 'jual', 'makan', 'lokal', 'aktivitas', 'air', 'buruk', 'seberang', 'jalan', 'hotel', 'spa', 'restoran']"
9,9,0,0.9716,"cafe, toilet, anak, yg, mandi","['sedia', 'duduk', 'yg', 'layak', 'melhat', 'matahari', 'terbit', 'akses', 'pantai', 'yg', 'mudah', 'yg', 'bagus', 'matahari', 'terbit', 'cuaca', 'awan', 'sedia', 'duduk', 'yg', 'layak', 'melhat', 'matahari', 'terbit']"
10,10,1,0.9573,"parkir, bersih, air, makan, hotel","['ya', 'fasilitas', 'sana', 'rapi', 'bersih', 'ya', 'fasilitas', 'sana', 'rapi', 'bersih', 'ya', 'fasilitas', 'sana', 'rapi', 'bersih']"
11,11,2,0.8336,"pantai, kotor, parkir, air, sampah","['tenang', 'pijat', 'tawar', 'ganggu', 'tinggal', 'tenang', 'pijat', 'tawar', 'ganggu', 'tinggal']"
12,12,2,0.9771,"pantai, kotor, parkir, air, sampah","['pantai', 'harap', 'hotel', 'milik', 'pribadi', 'matahari', 'loungers', 'handuk', 'sedia', 'jemur', 'matahari', 'rusak', 'bantal', 'noda', 'kotor', 'pantai', 'harap', 'hotel', 'milik', 'pribadi', 'matahari', 'loungers', 'handuk', 'sedia', 'jemur', 'matahari', 'rusak', 'bantal', 'noda', 'kotor']"
13,13,2,0.9627,"pantai, kotor, parkir, air, sampah","['sulit', 'sewa', 'sepeda', 'pagi', 'salah', 'hotel', 'sulit', 'sewa', 'sepeda', 'pagi', 'salah', 'hotel', 'sulit', 'sewa', 'sepeda', 'pagi', 'salah', 'hotel']"
14,14,2,0.9845,"pantai, kotor, parkir, air, sampah","['overall', 'sanur', 'rekomendasi', 'destinasi', 'pantai', 'bal', 'turis', 'yg', 'menyebrang', 'nusa', 'penida', 'bs', 'sanur', 'sanur', 'kotor', 'tambah', 'tingkat', 'fasilitas', 'tmpt', 'bilas', 'mandi', 'tmpt', 'mkn', 'yg', 'nyaman', 'pinggir', 'pantai', 'parkir', 'pada', 'sanur', 'kotor', 'tambah', 'tingkat', 'fasilitas', 'tmpt', 'bilas', 'mandi', 'tmpt', 'mkn', 'yg', 'nyaman', 'pinggir', 'pantai', 'parkir', 'pada']"
15,15,2,0.9694,"pantai, kotor, parkir, air, sampah","['resortnya', 'kembang', 'tinggal', 'dg', 'kawasan', 'pantai', 'bal', 'resortnya', 'kembang', 'tinggal', 'dg', 'kawasan', 'pantai', 'bal', 'resortnya', 'kembang', 'tinggal', 'dg', 'kawasan', 'pantai', 'bal']"
16,16,2,0.9536,"pantai, kotor, parkir, air, sampah","['sampah', 'atur', 'area', 'pribadi', 'daerah', 'sampah', 'atur', 'area', 'pribadi', 'daerah', 'pijat', 'wanita', 'restoran', 'pasar', 'lokal', 'lengkap', 'giat', 'watersport', 'murah', 'selam', 'takjub']"
17,17,0,0.948,"cafe, toilet, anak, yg, mandi","['fasilitas', 'kamar', 'mandi', 'toilet', 'kotor', 'fasilitas', 'kamar', 'mandi', 'toilet', 'kotor', 'anjing', 'liar', 'liar']"
18,18,0,0.9552,"cafe, toilet, anak, yg, mandi","['tutup', 'hyatt', 'bantu', 'taman', 'indah', 'pagar', 'bangun', 'tutup', 'hyatt', 'bantu', 'taman', 'indah', 'pagar', 'bangun']"
19,19,1,0.9381,"parkir, bersih, air, makan, hotel","['parkir', 'susah', 'peak', 'season', 'nya', 'parkir', 'susah', 'peak', 'season', 'nya']"
20,20,0,0.9386,"cafe, toilet, anak, yg, mandi","['susah', 'toilet', '', 'susah', 'toilet', '', 'pantai', 'asik', 'susah', 'toilet', '']"
21,21,2,0.9751,"pantai, kotor, parkir, air, sampah","['perhati', 'fasilitas', 'toilet', 'sampah', 'kran', 'air', 'cuci', 'tangan', 'kaki', 'perhati', 'fasilitas', 'toilet', 'sampah', 'kran', 'air', 'cuci', 'tangan', 'kaki', 'perhati', 'fasilitas', 'toilet', 'sampah', 'kran', 'air', 'cuci', 'tangan', 'kaki']"
22,22,1,0.9573,"parkir, bersih, air, makan, hotel","['parkir', 'mobil', 'gak', 'muat', 'mobil', 'parkir', 'mobil', 'gak', 'muat', 'mobil', 'parkir', 'mobil', 'gak', 'muat', 'mobil']"
23,23,2,0.9436,"pantai, kotor, parkir, air, sampah","['parkir', 'sempit', 'pantai', 'kotor', 'parkir', 'sempit', 'pantai', 'kotor', 'parkir', 'sempit', 'pantai', 'kotor']"
24,24,1,0.8602,"parkir, bersih, air, makan, hotel","['mudah', 'parkir', 'mudah', 'parkir']"
25,25,2,0.9716,"pantai, kotor, parkir, air, sampah","['pantai', 'bagus', 'air', 'tenang', 'sampah', 'aja', 'parkir', 'batas', 'pantai', 'bagus', 'air', 'tenang', 'sampah', 'aja', 'parkir', 'batas', 'pantai', 'bagus', 'air', 'tenang', 'sampah', 'aja', 'parkir', 'batas']"
26,26,2,0.9658,"pantai, kotor, parkir, air, sampah","['pantai', 'indah', 'parkir', 'mobil', 'pada', 'parkir', 'pantai', 'matahari', 'terbit', 'pantai', 'indah', 'parkir', 'mobil', 'pada', 'parkir', 'pantai', 'matahari', 'terbit', 'parkir', 'mobil', 'pada']"
27,27,2,0.9934,"pantai, kotor, parkir, air, sampah","['toilet', 'pantai', 'duyung', 'masuk', 'jalan', 'duyung', 'belah', 'utara', 'semawang', 'bau', 'aneh', 'bayar', 'bau', 'kayak', 'got', 'ibuk', 'yg', 'jaga', 'warung', 'bau', 'pipa', 'kotor', 'mohon', 'baik', 'perhati', 'mandi', 'anak', 'aneh', 'ibuk', 'ibuk', 'ngajak', 'anak', 'teliti', 'lubang', 'septiktang', 'ibuk', 'penasaran', 'bau', 'air', 'instrusi', 'air', 'laut', 'sumur', 'bor', 'bal', 'beach', 'paradise', 'toilet', 'pantai', 'duyung', 'masuk', 'jalan', 'duyung', 'belah', 'utara', 'semawang', 'bau', 'aneh', 'bayar', 'bau', 'kayak', 'got', 'ibuk', 'yg', 'jaga', 'warung', 'bau', 'pipa', 'kotor', 'mohon', 'baik', 'perhati', 'mandi', 'anak', 'aneh', 'ibuk', 'ibuk', 'ngajak', 'anak', 'teliti', 'lubang', 'septiktang', 'ibuk', 'penasaran', 'bau', 'air', 'instrusi', 'air', 'laut', 'sumur', 'bor', 'bal', 'beach', 'paradise', 'toilet', 'pantai', 'duyung', 'masuk', 'jalan', 'duyung', 'belah', 'utara', 'semawang', 'bau', 'aneh']"
28,28,0,0.9821,"cafe, toilet, anak, yg, mandi","['aktifotas', 'pagi', 'jogging', 'jogging', 'track', 'cycling', 'yg', 'sewa', 'pinjam', 'hotel', 'saran', 'utk', 'yg', 'wenang', 'tambah', 'area', 'sitting', 'public', 'area', 'aktifotas', 'pagi', 'jogging', 'jogging', 'track', 'cycling', 'yg', 'sewa', 'pinjam', 'hotel', 'saran', 'utk', 'yg', 'wenang', 'tambah', 'area', 'sitting', 'public', 'area']"
29,29,2,0.9252,"pantai, kotor, parkir, air, sampah","['sulit', 'temu', 'toilet', 'sulit', 'temu', 'toilet', 'sulit', 'temu', 'toilet']"
30,30,0,0.9899,"cafe, toilet, anak, yg, mandi","['tempat', 'cocok', 'bawa', 'anak', 'anak', 'akses', 'masuk', 'sempit', 'kendara', 'sayang', 'minggu', 'kesana', 'toilet', 'kamar', 'mandi', 'tutup', 'efek', 'pandemi', 'cafe', 'cafe', 'buka', 'sih', 'tempat', 'cocok', 'bawa', 'anak', 'anak', 'akses', 'masuk', 'sempit', 'kendara', 'sayang', 'minggu', 'kesana', 'toilet', 'kamar', 'mandi', 'tutup', 'efek', 'pandemi', 'cafe', 'cafe', 'buka', 'sih', 'tempat', 'cocok', 'bawa', 'anak', 'anak', 'akses', 'masuk', 'sempit', 'kendara', 'sayang', 'minggu', 'kesana', 'toilet', 'kamar', 'mandi', 'tutup', 'efek', 'pandemi', 'cafe', 'cafe', 'buka', 'sih']"
31,31,2,0.9695,"pantai, kotor, parkir, air, sampah","['ayun', 'barat', 'pantai', 'rusak', 'tolong', 'baik', 'ayun', 'ayun', 'barat', 'pantai', 'rusak', 'tolong', 'baik', 'ayun', 'ayun', 'barat', 'pantai', 'rusak', 'tolong', 'baik', 'ayun']"
32,32,2,0.9723,"pantai, kotor, parkir, air, sampah","['parkir', 'mobil', 'sulit', 'krn', 'bnyak', 'transport', 'fast', 'boat', 'pantai', 'kotor', 'bnyak', 'sampah', 'parkir', 'mobil', 'sulit', 'krn', 'bnyak', 'transport', 'fast', 'boat', 'pantai', 'kotor', 'bnyak', 'sampah']"
33,33,0,0.9431,"cafe, toilet, anak, yg, mandi","['kotor', 'restoran', 'd', 'cafe', 'kotor', 'restoran', 'd', 'cafe', 'kotor', 'restoran', 'd', 'cafe']"
34,34,1,0.9374,"parkir, bersih, air, makan, hotel","['susah', 'cari', 'parkir', 'susah', 'cari', 'parkir', 'dagang', 'kurg', 'jaga', 'bersih']"
35,35,1,0.5818,"parkir, bersih, air, makan, hotel","['parkir', 'lumayan', 'susah', 'parkir', 'lumayan', 'susah']"
