,Document_No,Dominant_Topic,Topic_Perc_Contrib,Topic Keywords,Text
0,0,1,0.9686,"pantai, jalan, mudah, akses, nusa","['pantai', 'tepat', 'labuh', 'unjung', 'pulau', 'nusa', 'penida', 'nusa', 'lembongan', 'warung', 'belanja', 'suvenir', 'pantai', 'tepat', 'labuh', 'unjung', 'pulau', 'nusa', 'penida', 'nusa', 'lembongan']"
1,1,2,0.9851,"pantai, jalan, sanur, kota, denpasar","['mudah', 'pulau', 'lembongan', 'peda', 'mes', 'online', 'pergi', 'salah', 'spot', 'sebar', 'pantai', 'sanur', 'jemput', 'hotel', 'jalan', 'empat', 'pantai', 'jalan', 'setapak', 'temu', 'jalan', 'kilometer', 'jalan', 'empat', 'pantai', 'jalan', 'setapak', 'temu', 'jalan', 'kilometer', 'mes', 'online', 'pergi', 'salah', 'spot', 'sebar', 'pantai', 'sanur', 'jemput', 'hotel', 'jalan', 'tepi', 'pantai', 'sanur', 'indah', 'malam', 'bawa', 'senter', 'obor', 'jalan', 'nyala', 'aspal', 'aman', 'jalan', 'malam']"
2,2,2,0.9722,"pantai, jalan, sanur, kota, denpasar","['pantai', 'milik', 'kafe', 'bar', 'habis', 'malam', 'senang', 'tonton', 'matahari', 'turun', 'nikmat', 'cocktail', 'pantai', 'milik', 'kafe', 'bar', 'habis', 'malam', 'senang', 'tonton', 'matahari', 'turun', 'nikmat', 'cocktail']"
3,3,2,0.8893,"pantai, jalan, sanur, kota, denpasar","['olahraga', 'air', 'pantai', 'aman', 'restoran', 'hotel', 'akses', 'pantai', 'olahraga', 'air', 'pantai', 'aman', 'restoran', 'hotel', 'akses', 'pantai']"
4,4,2,0.9581,"pantai, jalan, sanur, kota, denpasar","['jalan', 'jalan', 'aspal', 'bentang', 'km', 'restoran', 'bar', 'pantai', 'jalan', 'jalan', 'aspal', 'bentang', 'km', 'restoran', 'bar', 'pantai']"
5,5,2,0.9624,"pantai, jalan, sanur, kota, denpasar","['kota', 'denpasar', 'jarak', 'km', 'pantai', 'sanur', 'cocok', 'renang', 'nikmat', 'indah', 'terumbu', 'karang', 'ombak', 'snorkling', 'kota', 'denpasar', 'jarak', 'km']"
6,6,2,0.9508,"pantai, jalan, sanur, kota, denpasar","['hardy', 's', 'supermarket', 'jalan', 'utama', 'pantai', 'milik', 'sanur', 'pantai', 'milik', 'mil', 'jalan', 'sepeda', 'pinggir', 'jalan']"
7,7,2,0.9197,"pantai, jalan, sanur, kota, denpasar","['jalan', 'kaki', 'kilometer', 'pantai', 'jalan', 'kaki', 'kilometer', 'pantai']"
8,8,0,0.9868,"pantai, yg, sanur, bersih, kota","['jemur', 'renang', 'renang', 'sebentar', 'pasang', 'terkadang', 'keluarga', 'suka', 'akses', 'mudah', 'pantai', 'bersih', 'ramai', 'sepet', 'kuta', 'favorit', 'makan', 'sate', 'babi', 'yg', 'porsi', 'k', 'lumpia', 'k', 'love', 'this', 'place', 'jemur', 'renang', 'renang', 'sebentar', 'pasang', 'terkadang', 'keluarga', 'suka', 'akses', 'mudah', 'pantai', 'bersih', 'ramai', 'sepet', 'kuta', 'favorit', 'makan', 'sate', 'babi', 'yg', 'porsi', 'k', 'lumpia', 'k', 'love', 'this', 'place']"
9,9,2,0.988,"pantai, jalan, sanur, kota, denpasar","['pantai', 'sanur', 'lokasi', 'nya', 'strategis', 'pusat', 'kota', 'pantai', 'ombak', 'nya', 'tenang', 'aman', 'mandi', 'anak', 'anak', 'ujung', 'ramai', 'suasana', 'riah', 'pantai', 'sanur', 'lokasi', 'nya', 'strategis', 'pusat', 'kota', 'pantai', 'ombak', 'nya', 'tenang', 'aman', 'mandi', 'anak', 'anak', 'ujung', 'ramai', 'suasana', 'riah', 'anta', 'sanur', 'lokasi', 'nya', 'strategis', 'pusat', 'kota', 'pantai', 'ombak', 'nya', 'tenang', 'aman', 'mandi', 'anak', 'anak', 'ujung', 'ramai', 'suasana', 'riah']"
10,10,2,0.977,"pantai, jalan, sanur, kota, denpasar","['letak', 'pantai', 'sanur', 'hotel', 'jalan', 'kaki', 'menit', 'santai', 'pantai', 'sanu', 'letak', 'pantai', 'sanur', 'hotel', 'jalan', 'kaki', 'menit', 'santai', 'pantai', 'sanu', 'letak', 'pantai', 'sanur', 'hotel', 'jalan', 'kaki', 'menit', 'santai', 'pantai', 'sanu']"
11,11,2,0.9682,"pantai, jalan, sanur, kota, denpasar","['pantai', 'pas', 'renang', 'daerah', 'sanur', 'lokasi', 'pusat', 'kota', 'denpasar', 'by', 'pass', 'pantai', 'pas', 'renang', 'daerah', 'sanur', 'lokasi', 'pusat', 'kota', 'denpasar', 'by', 'pass']"
12,12,1,0.5636,"pantai, jalan, mudah, akses, nusa","['pantai', 'tenang', 'jarang', 'unjung', 'akses', 'masuk', 'mudah', 'arah', 'hotel', 'inna', 'sanur', 'pantai', 'tenang', 'jarang', 'unjung', 'akses', 'masuk', 'mudah', 'arah', 'hotel', 'inna', 'sanur']"
13,13,2,0.9686,"pantai, jalan, sanur, kota, denpasar","['salah', 'pantai', 'bal', 'letak', 'kota', 'denpasar', 'bal', 'salah', 'pantai', 'bal', 'letak', 'kota', 'denpasar', 'bal', 'salah', 'pantai', 'bal', 'letak', 'kota', 'denpasar', 'bal']"
14,14,0,0.6279,"pantai, yg, sanur, bersih, kota","['eksotis', 'songsong', 'terbit', 'matahari', 'terbit', 'hotel', 'pantai', 'praktis', 'tinggal', 'jalan', 'kaki', 'pantai', 'songsong', 'sunrise', 'jam', 'pantai', 'sunrise', 'nya', 'hotel', 'pantai', 'praktis', 'tinggal', 'jalan', 'kaki', 'pantai', 'hotel', 'pantai', 'praktis', 'tinggal', 'jalan', 'kaki', 'pantai']"
15,15,1,0.9725,"pantai, jalan, mudah, akses, nusa","['nikmat', 'sunrise', 'beli', 'cicip', 'makan', 'tradisional', 'jual', 'sisi', 'pantai', 'beli', 'suvenir', 'ga', 'susah', 'toko', 'suvenir', 'panjang', 'pantai', 'beli', 'suvenir', 'ga', 'susah', 'toko', 'suvenir', 'panjang', 'pantai']"
16,16,1,0.9361,"pantai, jalan, mudah, akses, nusa","['akses', 'pantai', 'mudah', 'papan', 'tunjuk', 'akses', 'pantai', 'mudah', 'papan', 'tunjuk']"
17,17,2,0.9859,"pantai, jalan, sanur, kota, denpasar","['alah', 'maskot', 'bal', 'pantai', 'sanur', 'lokasi', 'nya', 'strategis', 'pusat', 'kota', 'pantai', 'ombak', 'nya', 'tenang', 'moga', 'terjga', 'salah', 'maskot', 'bal', 'pantai', 'sanur', 'lokasi', 'nya', 'strategis', 'pusat', 'kota', 'pantai', 'ombak', 'nya', 'tenang', 'moga', 'terjga', 'salah', 'maskot', 'bal', 'pantai', 'sanur', 'lokasi', 'nya', 'strategis', 'pusat', 'kota', 'pantai', 'ombak', 'nya', 'tenang', 'moga', 'terjga']"
18,18,1,0.9357,"pantai, jalan, mudah, akses, nusa","['yg', 'nyebrang', 'nusa', 'penida', 'lembongan', 'yg', 'nyebrang', 'nusa', 'penida', 'lembongan']"
19,19,0,0.9808,"pantai, yg, sanur, bersih, kota","['kota', 'denpasar', 'sepeda', 'motor', 'pantai', 'kenal', 'pandang', 'matahari', 'terbit', 'pasir', 'putih', 'bersih', 'bagus', 'renang', 'maen', 'kano', 'kota', 'denpasar', 'sepeda', 'motor', 'anya', 'kota', 'denpasar', 'sepeda', 'motor', 'pantai', 'kenal', 'pandang', 'matahari', 'terbit', 'pasir', 'putih', 'bersih', 'bagus', 'renang', 'maen', 'kano']"
20,20,2,0.9852,"pantai, jalan, sanur, kota, denpasar","['pantai', 'sanur', 'letak', 'ujung', 'timur', 'kota', 'denpasar', 'pusat', 'kota', 'kisar', 'menit', 'museum', 'bajra', 'sandhi', 'renon', 'pantai', 'sanur', 'letak', 'ujung', 'timur', 'kota', 'denpasar', 'pusat', 'kota', 'kisar', 'menit', 'museum', 'bajra', 'sandhi', 'renon', 'pantai', 'sanur', 'letak', 'ujung', 'timur', 'kota', 'denpasar', 'pusat', 'kota', 'kisar', 'menit', 'museum', 'bajra', 'sandhi', 'renon']"
21,21,0,0.9813,"pantai, yg, sanur, bersih, kota","['pantai', 'ramai', 'kunjung', 'wisatawan', 'lokal', 'mancanegara', 'lokasi', 'strategis', 'karna', 'letak', 'kota', 'disni', 'sedia', 'sewa', 'kano', 'main', 'jg', 'kapal', 'penyebrangan', 'pulau', 'belah', 'pantai', 'ramai', 'kunjung', 'wisatawan', 'lokal', 'mancanegara', 'lokasi', 'strategis', 'karna', 'letak', 'kota', 'disni', 'sedia', 'sewa', 'kano', 'main', 'jg', 'kapal', 'penyebrangan', 'pulau', 'belah']"
22,22,0,0.9777,"pantai, yg, sanur, bersih, kota","['lokasi', 'ok', 'harga', 'makan', 'murah', 'agam', 'awas', 'yg', 'jomblo', 'baper', 'bule', 'yg', 'mesra', 'mesra', 'sana', 'lokasi', 'ok', 'harga', 'makan', 'murah', 'agam', 'awas', 'yg', 'jomblo', 'baper', 'bule', 'yg', 'mesra', 'mesra', 'sana']"
23,23,0,0.9622,"pantai, yg, sanur, bersih, kota","['pantai', 'yg', 'bersih', 'pantai', 'ledak', 'area', 'resort', 'hotel', 'cocok', 'jalan', 'jalan', 'pandang', 'yg', 'bagus', 'pantai', 'ledak', 'area', 'resort', 'hotel']"
24,24,0,0.6916,"pantai, yg, sanur, bersih, kota","['lokasi', 'kota', 'denpasar', 'sayang', 'mampir', 'kunjung', 'bal', 'lokasi', 'kota', 'denpasar', 'sayang', 'mampir', 'kunjung', 'bal', 'lokasi', 'kota', 'denpasar', 'sayang', 'mampir', 'kunjung', 'bal']"
25,25,2,0.966,"pantai, jalan, sanur, kota, denpasar","['bagus', 'jalan', 'pantai', 'kewalahan', 'orang', 'orang', 'jalur', 'sepeda', 'jalan', 'kaki', 'bagus', 'jalan', 'pantai', 'kewalahan', 'orang', 'orang', 'jalur', 'sepeda', 'jalan', 'kaki']"
26,26,1,0.9553,"pantai, jalan, mudah, akses, nusa","['akses', 'mudah', 'hebat', 'santa', 'minum', 'teman', 'teman', 'akses', 'mudah', 'hebat', 'santa', 'minum', 'teman', 'teman']"
27,27,1,0.932,"pantai, jalan, mudah, akses, nusa","['tempat', 'mudah', 'akses', 'tempat', 'mudah', 'akses', 'tempat', 'mudah', 'akses']"
28,28,0,0.9792,"pantai, yg, sanur, bersih, kota","['pantai', 'sanur', 'yg', 'dr', 'rumah', 'pantai', 'nya', 'nyaman', 'bersih', 'bagus', 'anak', 'main', 'pasir', 'stand', 'makan', 'hotel', 'balibeach', 'pantai', 'sanur', 'yg', 'dr', 'rumah', 'pantai', 'nya', 'nyaman', 'bersih', 'bagus', 'anak', 'main', 'pasir', 'stand', 'makan', 'hotel', 'balibeach']"
29,29,1,0.9489,"pantai, jalan, mudah, akses, nusa","['pilih', 'pantai', 'kuta', 'lokasi', 'dekat', 'serama', 'pantai', 'kuta', 'pantai', 'indah', 'bandara', 'restaurant', 'cafe', 'inap']"
30,30,1,0.9812,"pantai, jalan, mudah, akses, nusa","['lokasi', 'mudah', 'jangkau', 'lokasi', 'parkir', 'pada', 'kapal', 'kapal', 'seberang', 'pulau', 'nusa', 'penida', 'lokasi', 'mudah', 'jangkau', 'lokasi', 'parkir', 'pada', 'kapal', 'kapal', 'seberang', 'pulau', 'nusa', 'penida', 'lokasi', 'mudah', 'jangkau', 'lokasi', 'parkir', 'pada', 'kapal', 'kapal', 'seberang', 'pulau', 'nusa', 'penida']"
31,31,2,0.5371,"pantai, jalan, sanur, kota, denpasar","['milik', 'strategis', 'jangkau', 'milik', 'strategis', 'jangkau', 'milik', 'strategis', 'jangkau', 'sanur', 'milik', 'berangkat', 'unjung', 'pulau', 'nusa', 'penida', 'lembongan']"
32,32,2,0.6014,"pantai, jalan, sanur, kota, denpasar","['sanur', 'milik', 'kapal', 'pergi', 'pulau', 'lombangan', 'layak', 'kunjung', 'pulau', 'penida', 'pulau', 'gili', 'sanur', 'milik', 'kapal', 'pergi', 'pulau', 'lombangan', 'layak', 'kunjung', 'pulau', 'penida', 'pulau', 'gili']"
33,33,0,0.8522,"pantai, yg, sanur, bersih, kota","['akses', 'pantai', 'yg', 'mudah', 'akses', 'pantai', 'yg', 'mudah', 'yg', 'bagus', 'matahari', 'terbit', 'cuaca', 'awan', 'sedia', 'duduk', 'yg', 'layak', 'melhat', 'matahari', 'terbit']"
34,34,2,0.9325,"pantai, jalan, sanur, kota, denpasar","['jalan', 'bagus', 'jalan', 'pantai', 'km', 'jalan', 'bagus', 'jalan', 'pantai', 'km']"
35,35,2,0.9292,"pantai, jalan, sanur, kota, denpasar","['letak', 'denpasar', 'kuta', 'letak', 'denpasar', 'kuta', 'letak', 'denpasar', 'kuta']"
36,36,1,0.9776,"pantai, jalan, mudah, akses, nusa","['mudah', 'jalan', 'kaki', 'daerah', 'pantai', 'tinggal', 'pasar', 'tawar', 'tawar', 'jual', 'tarik', 'duduk', 'obrol', 'erti', 'beli', 'mudah', 'jalan', 'kaki', 'daerah', 'pantai', 'tinggal', 'pasar', 'tawar', 'tawar', 'jual', 'tarik', 'duduk', 'obrol', 'erti', 'beli']"
37,37,1,0.9741,"pantai, jalan, mudah, akses, nusa","['jalan', 'kaki', 'pantai', 'hotel', 'inap', 'puas', 'pandang', 'pagi', 'sunrise', 'jalan', 'kaki', 'pantai', 'hotel', 'inap', 'puas', 'pandang', 'pagi', 'sunrise', 'jalan', 'kaki', 'pantai', 'hotel', 'inap', 'puas', 'pandang', 'pagi', 'sunrise']"
38,38,1,0.7364,"pantai, jalan, mudah, akses, nusa","['pantai', 'sanur', 'letak', 'lucu', 'ramah', 'lingkung', 'restoran', 'bar', 'lokasi', 'mudah', 'akses', 'mobil', 'skuter', 'menit', 'kendara', 'kota', 'ubud', 'gantung', 'lintas', 'menit', 'pantai', 'kuta', 'sesuai', 'peta', 'google', 'buruk', 'pantai', 'sanur', 'letak', 'lucu', 'ramah', 'lingkung', 'restoran', 'bar', 'lokasi', 'mudah', 'akses', 'mobil', 'skuter', 'menit', 'kendara', 'kota', 'ubud', 'gantung', 'lintas', 'menit', 'pantai', 'kuta', 'sesuai', 'peta', 'google', 'lokasi', 'mudah', 'akses', 'mobil', 'skuter', 'menit', 'kendara', 'kota', 'ubud', 'gantung', 'lintas', 'menit', 'pantai', 'kuta', 'sesuai', 'peta', 'google']"
39,39,1,0.9671,"pantai, jalan, mudah, akses, nusa","['akses', 'mudah', 'tempuh', 'pantai', 'ramai', 'dagang', 'unjung', 'akses', 'mudah', 'tempuh', 'pantai', 'ramai', 'dagang', 'unjung', 'akses', 'mudah', 'tempuh', 'pantai', 'ramai', 'dagang', 'unjung']"
40,40,1,0.6628,"pantai, jalan, mudah, akses, nusa","['pantai', 'sanur', 'timur', 'kota', 'denpasar', 'pantai', 'labuh', 'kapal', 'cepat', 'pulau', 'nusa', 'penida', 'pulau', 'lembongan', 'pulau', 'gili', 'pantai', 'sanur', 'timur', 'kota', 'denpasar', 'kendara', 'mobil', 'pantai', 'labuh', 'kapal', 'cepat', 'pulau', 'nusa', 'penida', 'pulau', 'lembongan', 'pulau', 'gili', 'kendara', 'mobil', '']"
41,41,2,0.9807,"pantai, jalan, sanur, kota, denpasar","['jarak', 'yg', 'pusat', 'kota', 'bandara', 'ngurah', 'rai', 'jadi', 'pantai', 'sanur', 'salah', 'tuju', 'wisata', 'bal', 'jarak', 'yg', 'pusat', 'kota', 'bandara', 'ngurah', 'rai', 'jadi', 'pantai', 'sanur', 'salah', 'tuju', 'wisata', 'bal', 'jarak', 'yg', 'pusat', 'kota', 'bandara', 'ngurah', 'rai', 'jadi', 'pantai', 'sanur', 'salah', 'tuju', 'wisata', 'bal']"
42,42,1,0.9553,"pantai, jalan, mudah, akses, nusa","['wisatawan', 'domestik', 'kunjung', 'akses', 'mudah', 'jalan', 'raya', 'akses', 'mudah', 'jalan', 'raya', 'akses', 'mudah', 'jalan', 'raya']"
43,43,0,0.9718,"pantai, yg, sanur, bersih, kota","['jarak', 'yg', 'trlalu', 'dr', 'pusat', 'kota', 'jadi', 'pantai', 'ramai', 'kunjung', 'pd', 'libur', 'sore', 'jarak', 'yg', 'trlalu', 'dr', 'pusat', 'kota', 'jadi', 'pantai', 'ramai', 'kunjung', 'pd', 'libur', 'sore']"
44,44,0,0.9788,"pantai, yg, sanur, bersih, kota","['pantai', 'hotel', 'bagus', 'bersih', 'pantai', 'hotel', 'bersih', 'jalan', 'aspal', 'pantai', 'pantai', 'padu', 'bar', 'restoran', 'suka', 'bamboo', 'bar', 'pantai', 'pantai', 'hotel', 'bagus', 'bersih', 'pantai', 'hotel', 'bersih', 'jalan', 'aspal', 'pantai', 'pantai', 'padu', 'bar', 'restoran', 'suka', 'bamboo', 'bar', 'pantai']"
45,45,1,0.9541,"pantai, jalan, mudah, akses, nusa","['pantai', 'dermaga', 'menyebrang', 'nusa', 'penida', 'nusa', 'lembongan', 'pantai', 'dermaga', 'menyebrang', 'nusa', 'penida', 'nusa', 'lembongan']"
46,46,1,0.9556,"pantai, jalan, mudah, akses, nusa","['lokasi', 'mudah', 'jangkau', 'kunjung', 'kesini', 'menyebrang', 'pulau', 'nusa', 'lembongan', 'lokasi', 'mudah', 'jangkau', 'kondisi', 'pantai', 'kotor']"
47,47,0,0.9685,"pantai, yg, sanur, bersih, kota","['pantai', 'sanur', 'labuh', 'kumpul', 'tumpang', 'yg', 'k', 'wisata', 'yg', 'mreka', 'tuju', 'pantai', 'sanur', 'labuh', 'kumpul', 'tumpang', 'yg', 'k', 'wisata', 'yg', 'mreka', 'tuju']"
48,48,2,0.9836,"pantai, jalan, sanur, kota, denpasar","['ambil', 'jalan', 'pantai', 'sanur', 'taksi', 'legi', 'irp', 'usd', 'pantai', 'indah', 'ambil', 'pasuk', 'pantai', 'pergi', 'jalan', 'uang', 'menit', 'jalan', 'kaki', 'pergi', 'pantai', 'ambil', 'jalan', 'pantai', 'sanur', 'taksi', 'legi', 'irp', 'usd', 'pantai', 'indah', 'ambil', 'pasuk', 'pantai', 'pergi', 'jalan', 'uang', 'menit', 'jalan', 'kaki', 'pergi', 'pantai']"
49,49,2,0.571,"pantai, jalan, sanur, kota, denpasar","['renon', 'menit', 'kendara', 'renon', 'menit', 'kendara', 'renon', 'menit', 'kendara', 'jalan', 'lancar', 'libur', 'galungan']"
50,50,1,0.9804,"pantai, jalan, mudah, akses, nusa","['akses', 'jalan', 'yg', 'mudah', 'jangkau', 'pantai', 'minat', 'wisnus', 'wisman', 'salah', 'pantai', 'pulau', 'dewata', 'kesini', 'gak', 'bosan', 'pantai', 'panorama', 'yg', 'indah', 'akses', 'jalan', 'yg', 'mudah', 'jangkau', 'pantai', 'minat', 'wisnus', 'wisman', 'akses', 'jalan', 'yg', 'mudah', 'jangkau', 'pantai', 'minat', 'wisnus', 'wisman']"
51,51,0,0.9786,"pantai, yg, sanur, bersih, kota","['indah', 'banget', 'ygy', 'pusat', 'kota', 'yg', 'penting', 'mari', 'jaga', 'bersih', 'pantai', 'indah', 'banget', 'ygy', 'pusat', 'kota', 'yg', 'penting', 'mari', 'jaga', 'bersih', 'pantai', 'indah', 'banget', 'ygy', 'pusat', 'kota', 'yg', 'penting', 'mari', 'jaga', 'bersih', 'pantai']"
52,52,0,0.6086,"pantai, yg, sanur, bersih, kota","['pantai', 'kenal', 'pasir', 'putih', 'tunjang', 'sarana', 'prasarana', 'pada', 'lokasi', 'mudah', 'jangkau', 'pantai', 'speed', 'boat', 'nyebrang', 'pulau', 'dekat', 'beli', 'tiket', 'dermaga', 'pantai', 'pantai', 'kenal', 'pasir', 'putih', 'tunjang', 'sarana', 'prasarana', 'pada', 'lokasi', 'mudah', 'jangkau', 'pantai', 'speed', 'boat', 'nyebrang', 'pulau', 'dekat', 'beli', 'tiket', 'dermaga', 'pantai']"
53,53,0,0.9611,"pantai, yg, sanur, bersih, kota","['pantai', 'denpasar', 'kalo', 'pantai', 'gak', 'jimbaran', 'pantai', 'denpasar', 'kalo', 'pantai', 'gak', 'jimbaran', 'pantai', 'denpasar', 'kalo', 'pantai', 'gak', 'jimbaran']"
54,54,1,0.9735,"pantai, jalan, mudah, akses, nusa","['indah', 'bersih', 'akses', 'jalan', 'mudah', 'gratis', 'biaya', 'masuk', 'bayar', 'parkir', 'motor', 'indah', 'bersih', 'akses', 'jalan', 'mudah', 'indah', 'bersih', 'akses', 'jalan', 'mudah', 'gratis', 'biaya', 'masuk', 'bayar', 'parkir', 'motor']"
55,55,1,0.9901,"pantai, jalan, mudah, akses, nusa","['arak', 'pantai', 'sanur', 'bandara', 'ngurah', 'rai', 'km', 'bandara', 'jalan', 'tol', 'arah', 'benoa', 'lanjut', 'jalan', 'by', 'pass', 'ngurah', 'rai', 'masuk', 'jalan', 'bet', 'ngadang', 'jalan', 'danau', 'tamblingan', 'jarak', 'pantai', 'sanur', 'bandara', 'ngurah', 'rai', 'km', 'bandara', 'jalan', 'tol', 'arah', 'benoa', 'lanjut', 'jalan', 'by', 'pass', 'ngurah', 'rai', 'masuk', 'jalan', 'bet', 'ngadang', 'jalan', 'danau', 'tamblingan', 'jarak', 'pantai', 'sanur', 'bandara', 'ngurah', 'rai', 'km', 'bandara', 'jalan', 'tol', 'arah', 'benoa', 'lanjut', 'jalan', 'by', 'pass', 'ngurah', 'rai', 'masuk', 'jalan', 'bet', 'ngadang', 'jalan', 'danau', 'tamblingan']"
56,56,2,0.9744,"pantai, jalan, sanur, kota, denpasar","['pantai', 'sanur', 'letak', 'persis', 'belah', 'timur', 'kota', 'denpasar', 'kota', 'bal', 'sanur', 'kotamadya', 'denpasar', 'pantai', 'sanur', 'letak', 'persis', 'belah', 'timur', 'kota', 'denpasar', 'kota', 'bal', 'sanur', 'kotamadya', 'denpasar']"
57,57,2,0.955,"pantai, jalan, sanur, kota, denpasar","['lokasi', 'pantai', 'sanur', 'jarak', 'denpasar', 'lokasi', 'pantai', 'sanur', 'jarak', 'denpasar', 'okasi', 'pantai', 'sanur', 'jarak', 'denpasar']"
58,58,1,0.9828,"pantai, jalan, mudah, akses, nusa","['cari', 'pantai', 'masuk', 'jalan', 'kawasan', 'hotel', 'parigata', 'yg', 'akses', 'sepeda', 'motor', 'sepeda', 'jalan', 'kaki', 'cari', 'pantai', 'masuk', 'jalan', 'kawasan', 'hotel', 'parigata', 'yg', 'akses', 'sepeda', 'motor', 'sepeda', 'jalan', 'kaki', 'cari', 'pantai', 'masuk', 'jalan', 'kawasan', 'hotel', 'parigata', 'yg', 'akses', 'sepeda', 'motor', 'sepeda', 'jalan', 'kaki']"
59,59,1,0.9659,"pantai, jalan, mudah, akses, nusa","['owh', 'iya', 'sanur', 'dermaga', 'akses', 'penyebrangan', 'nusa', 'nusa', 'penida', 'bibir', 'pantai', 'jual', 'makan', 'dar', 'ganjal', 'perut', 'pagi', 'disanur', 'main', 'kano', 'kapal', 'kapal']"
60,60,0,0.9689,"pantai, yg, sanur, bersih, kota","['pantai', 'sanur', 'lokasi', 'wisata', 'selam', 'snorkling', 'lokasi', 'selam', 'selam', 'tingkat', 'ahli', 'pantai', 'sanur', 'lokasi', 'wisata', 'selam', 'snorkling', 'lokasi', 'selam', 'selam', 'tingkat', 'ahli']"
61,61,2,0.9688,"pantai, jalan, sanur, kota, denpasar","['', 'menit', 'jalan', 'kaki', 'kantor', 'healing', 'baik', '', 'menit', 'jalan', 'kaki', 'kantor', 'healing', 'baik', 'menit', 'jalan', 'kaki', 'kantor', 'healing', 'baik', '']"
62,62,0,0.9695,"pantai, yg, sanur, bersih, kota","['favorit', 'cafe', 'la', 'playa', 'sanur', 'masuk', 'jalan', 'duyung', 'favorit', 'cafe', 'la', 'playa', 'sanur', 'masuk', 'jalan', 'duyung', 'favorit', 'cafe', 'la', 'playa', 'sanur', 'masuk', 'jalan', 'duyung']"
63,63,0,0.9905,"pantai, yg, sanur, bersih, kota","['gerbang', 'utama', 'masuk', 'pantai', 'sanur', 'seberang', 'salah', 'toko', 'ayam', 'goreng', 'cepat', 'saji', 'kenal', 'mudah', 'gerbang', 'utama', 'mobil', 'akomodasi', 'fast', 'boat', 'masuk', 'gerbang', 'utama', 'pantai', 'sanur', 'gerbang', 'utama', 'masuk', 'pantai', 'sanur', 'seberang', 'salah', 'toko', 'ayam', 'goreng', 'cepat', 'saji', 'kenal', 'mudah', 'gerbang', 'utama', 'mobil', 'akomodasi', 'fast', 'boat', 'masuk', 'gerbang', 'utama', 'pantai', 'sanur', 'gerbang', 'utama', 'masuk', 'pantai', 'sanur', 'seberang', 'salah', 'toko', 'ayam', 'goreng', 'cepat', 'saji', 'kenal', 'mudah', 'gerbang', 'utama', 'mobil', 'akomodasi', 'fast', 'boat', 'masuk', 'gerbang', 'utama', 'pantai', 'sanur']"
64,64,1,0.5295,"pantai, jalan, mudah, akses, nusa","['lokasi', 'kota', 'denpasar', 'penyebrangan', 'nusa', 'penida', 'nusa', 'lembongan', 'lokasi', 'kota', 'denpasar']"
65,65,1,0.9677,"pantai, jalan, mudah, akses, nusa","['pantai', 'indah', 'jalan', 'bypass', 'nusa', 'penida', 'labuh', 'pantai', 'indah', 'jalan', 'bypass', 'nusa', 'penida', 'labuh', 'pantai', 'indah', 'jalan', 'bypass', 'nusa', 'penida', 'labuh']"
66,66,1,0.9301,"pantai, jalan, mudah, akses, nusa","['akses', 'masuk', 'ok', 'akses', 'masuk', 'ok', 'akses', 'masuk', 'ok']"
67,67,1,0.9393,"pantai, jalan, mudah, akses, nusa","['nyebrang', 'nusa', 'lembongan', 'nusa', 'penida', 'nyebrang', 'nusa', 'lembongan', 'nusa', 'penida']"
68,68,2,0.8439,"pantai, jalan, sanur, kota, denpasar","['tempat', 'bagus', 'akses', 'sepeda', 'harga', 'sewa', 'relatif', 'murah', 'kualitas', 'tempat', 'bagus', 'akses', 'sepeda', 'harga', 'sewa', 'relatif', 'murah', 'kualitas']"
69,69,0,0.9682,"pantai, yg, sanur, bersih, kota","['susur', 'pantai', 'warung', 'makan', 'ikan', 'mak', 'beng', 'kenal', 'lewat', 'jalan', 'raya', 'susur', 'pantai', 'warung', 'makan', 'ikan', 'mak', 'beng', 'kenal', 'lewat', 'jalan', 'raya']"
70,70,1,0.5474,"pantai, jalan, mudah, akses, nusa","['mudah', 'akses', 'jalan', 'raya', 'suasana', 'pantai', 'tenang', 'mudah', 'akses', 'jalan', 'raya', 'suasana', 'pantai', 'tenang']"
71,71,1,0.8963,"pantai, jalan, mudah, akses, nusa","['libur', 'murah', 'libur', 'murah', 'kuliner', 'pilih']"
72,72,1,0.9564,"pantai, jalan, mudah, akses, nusa","['mantul', 'tempat', 'cuman', 'sayang', 'mantep', 'euy', 'parkir', 'luas', 'bus', 'masuk', 'parkir', 'luas', 'bus', 'masuk', '']"
73,73,1,0.9261,"pantai, jalan, mudah, akses, nusa","['mudah', 'k', 'destinasi', 'mudah', 'k', 'destinasi', 'mudah', 'k', 'destinasi']"
