,Document_No,Dominant_Topic,Topic_Perc_Contrib,Topic Keywords,Text
0,0,2,0.8846,"makan, mahal, banding, kg, rupiah","['makan', 'mahal', 'makan', 'makan', 'mahal', 'makan']"
1,1,0,0.9893,"harga, makan, mahal, tawar, pantai","['restoran', 'hadap', 'bersih', 'mahal', 'temu', 'sanur', 'milik', 'identitas', 'jalan', 'utama', 'coba', 'keras', 'barat', 'kadang', 'kadang', 'pasta', 'burger', 'pilih', 'makan', 'indonesia', 'pilih', 'temu', 'mahal', 'bayar', 'harga', 'london', 'restoran', 'hadap', 'bersih', 'mahal', 'temu', 'sanur', 'milik', 'identitas', 'jalan', 'utama', 'coba', 'keras', 'barat', 'kadang', 'kadang', 'pasta', 'burger', 'pilih', 'makan', 'indonesia', 'pilih', 'temu', 'mahal', 'bayar', 'harga', 'london', 'temu', 'sanur', 'milik', 'identitas', 'jalan', 'utama', 'coba', 'keras', 'barat', 'kadang', 'kadang', 'pasta', 'burger', 'pilih', 'makan', 'indonesia', 'pilih', 'temu', 'mahal', 'bayar', 'harga', 'london']"
2,2,2,0.9618,"makan, mahal, banding, kg, rupiah","['mahal', 'banding', 'milik', 'pandang', 'laut', 'mahal', 'banding', 'milik', 'pandang', 'laut', 'jual', 'dagang', 'penuh', 'syarat', 'pijat', 'ganggu', 'abai', 'beli', 'mahal', 'banding']"
3,3,1,0.9613,"rb, orang, sewa, mahal, kano","['sanur', 'jogging', 'track', 'orang', 'jogging', 'pagi', 'hotel', 'restoran', 'harga', 'mahal', 'sanur', 'jogging', 'track', 'orang', 'jogging', 'pagi', 'hotel', 'restoran', 'harga', 'mahal']"
4,4,2,0.9749,"makan, mahal, banding, kg, rupiah","['', 'm', 'rupiah', 'kg', 'lobster', 'm', 'rupiah', 'kg', 'lobster', 'kali', 'lipat', 'banding', 'harga', 'sydney', 'ok', 'makan', 'pantai', 'tipu', 'm', 'rupiah', 'kg', 'lobster', 'kali', 'lipat', 'banding', 'harga', 'sydney', 'ok', 'makan', 'pantai', 'tipu']"
5,5,1,0.959,"rb, orang, sewa, mahal, kano","['bayar', 'kali', 'lipat', 'botol', 'air', 'bawa', 'ganggu', 'siap', 'duduk', 'pijat', 'minum', 'pergi', 'toko', 'bayar', 'kali', 'lipat', 'botol', 'air', 'bawa']"
6,6,4,0.9631,"bagus, jalan, mahal, bayar, gratis","['pantai', 'sanur', 'asyik', 'banget', 'nongkrong', 'gak', 'crowded', 'kayak', 'pantai', 'kuta', 'jimbaran', 'cuman', 'makan', 'mahal', 'cuman', 'makan', 'mahal', 'cuman', 'makan', 'mahal', '']"
7,7,0,0.9799,"harga, makan, mahal, tawar, pantai","['pantai', 'bagus', 'main', 'olahraga', 'selenggara', 'sana', 'tawar', 'tawar', 'bayar', 'puas', 'harga', 'harga', 'baik', 'pantai', 'bagus', 'main', 'olahraga', 'selenggara', 'sana', 'tawar', 'tawar', 'bayar', 'puas', 'harga', 'harga', 'baik', 'pantai', 'bagus', 'main', 'olahraga', 'selenggara', 'sana', 'tawar', 'tawar', 'bayar', 'puas', 'harga', 'harga', 'baik']"
8,8,4,0.9854,"bagus, jalan, mahal, bayar, gratis","['gratis', 'bayar', 'pakir', 'view', 'nya', 'bagus', 'bagus', 'dar', 'jalan', 'jalan', 'pagi', 'sore', 'piknik', 'bareng', 'temen', 'keluarga', 'bagus', 'kencan', 'gratis', 'bayar', 'pakir', 'view', 'nya', 'bagus', 'bagus', 'dar', 'jalan', 'jalan', 'pagi', 'sore', 'piknik', 'bareng', 'temen', 'keluarga', 'bagus', 'kencan', 'gratis', 'bayar', 'pakir', 'view', 'nya', 'bagus', 'bagus', 'dar', 'jalan', 'jalan', 'pagi', 'sore', 'piknik', 'bareng', 'temen', 'keluarga', 'bagus', 'kencan']"
9,9,0,0.974,"harga, makan, mahal, tawar, pantai","['pantai', 'bersih', 'anjur', 'bawa', 'makan', 'makan', 'harga', 'kali', 'lipat', 'mahal', 'pantai', 'bersih', 'anjur', 'bawa', 'makan', 'makan', 'harga', 'kali', 'lipat', 'maha', 'pantai', 'bersih', 'anjur', 'bawa', 'makan', 'makan', 'harga', 'kali', 'lipat', 'mahal']"
10,10,1,0.9944,"rb, orang, sewa, mahal, kano","['tiket', 'kesana', 'masuk', 'murah', 'gratis', 'parkir', 'rb', 'motor', 'rb', 'mobil', 'mahal', 'guna', 'fasilitas', 'kaya', 'seawalker', 'rb', 'orang', 'parasailing', 'rb', 'orang', 'banana', 'boat', 'rb', 'orang', 'jetski', 'rb', 'orang', 'rolling', 'donut', 'watersport', 'rb', 'orang', 'sewa', 'kano', 'rb', 'kano', 'sewa', 'speda', 'rb', 'jam', 'sewa', 'sundeck', 'rb', 'dsb', 'biaya', 'akomodasi', 'lumayan', 'backpacker', 'mahal', 'tiket', 'kesana', 'masuk', 'murah', 'gratis', 'parkir', 'rb', 'motor', 'rb', 'mobil', 'mahal', 'guna', 'fasilitas', 'kaya', 'seawalker', 'rb', 'orang', 'parasailing', 'rb', 'orang', 'banana', 'boat', 'rb', 'orang', 'jetski', 'rb', 'orang', 'rolling', 'donut', 'watersport', 'rb', 'orang', 'sewa', 'kano', 'rb', 'kano', 'sewa', 'speda', 'rb', 'jam', 'sewa', 'sundeck', 'rb', 'dsb', 'tiket', 'kesana', 'masuk', 'murah', 'gratis', 'parkir', 'rb', 'motor', 'rb', 'mobil', 'mahal', 'guna', 'fasilitas', 'kaya', 'seawalker', 'rb', 'orang', 'parasailing', 'rb', 'orang', 'banana', 'boat', 'rb', 'orang', 'jetski', 'rb', 'orang', 'rolling', 'donut', 'watersport', 'rb', 'orang', 'sewa', 'kano', 'rb', 'kano', 'sewa', 'speda', 'rb', 'jam', 'sewa', 'sundeck', 'rb', 'dsb', 'biaya', 'akomodasi', 'lumayan', 'backpacker', 'mahal']"
11,11,3,0.9763,"rb, bayar, air, bagus, sayang","['pantai', 'bersih', 'bagus', 'wisata', 'keluarga', 'sayang', 'b', 'yaang', 'air', 'bayar', 'rb', '', 'pantai', 'bersih', 'bagus', 'wisata', 'keluarga', 'sayang', 'b', 'yaang', 'air', 'bayar', 'rb', 'bagus', 'wisata', 'keluarga', 'sayang', 'b', 'yaang', 'air', 'bayar', 'rb', '']"
